{
  "project_info": {
    "project_number": "544845349042",
    "project_id": "mantra-pajak-go-id",
    "storage_bucket": "mantra-pajak-go-id.appspot.com"
  },
  "client": [
    {
      "client_info": {
        "mobilesdk_app_id": "1:544845349042:android:2ee63eaad27e911f4649ab",
        "android_client_info": {
          "package_name": "id.go.pajak.mantra"
        }
      },
      "oauth_client": [
        {
          "client_id": "544845349042-2mh9jja0vtrph03ttu68u3ens95lvk61.apps.googleusercontent.com",
          "client_type": 3
        }
      ],
      "api_key": [
        {
          "current_key": "AIzaSyCGZTvGDXHv59PWGLGiakUuLw0vx61Tq2U"
        }
      ],
      "services": {
        "appinvite_service": {
          "other_platform_oauth_client": [
            {
              "client_id": "544845349042-2mh9jja0vtrph03ttu68u3ens95lvk61.apps.googleusercontent.com",
              "client_type": 3
            }
          ]
        }
      }
    }
  ],
  "configuration_version": "1"
}
